0 0.41015625 0.142578125 0.3671875 0.19140625
0 0.357421875 0.37109375 0.19140625 0.15625
0 0.1328125 0.5078125 0.1328125 0.2421875
0 0.390625 0.68359375 0.1796875 0.1953125
0 0.576171875 0.896484375 0.23828125 0.15234375
0 0.625 0.44140625 0.2265625 0.3203125
