0 0.36328125 0.373046875 0.2890625 0.37890625
0 0.66796875 0.3203125 0.2890625 0.15625
0 0.837890625 0.541015625 0.18359375 0.26953125
0 0.330078125 0.7578125 0.36328125 0.3984375
0 0.703125 0.119140625 0.1796875 0.13671875
