0 0.611328125 0.4296875 0.28515625 0.1875
0 0.130859375 0.443359375 0.14453125 0.12109375
0 0.291015625 0.279296875 0.16796875 0.19140625
0 0.513671875 0.83203125 0.16796875 0.1875
0 0.57421875 0.625 0.375 0.171875
