0 0.59765625 0.82421875 0.484375 0.171875
0 0.62890625 0.33203125 0.3828125 0.15625
0 0.125 0.58203125 0.125 0.140625
0 0.228515625 0.716796875 0.13671875 0.10546875
0 0.326171875 0.15625 0.12890625 0.125
0 0.546875 0.482421875 0.125 0.09765625
