0 0.361328125 0.64453125 0.30859375 0.390625
0 0.626953125 0.8046875 0.23046875 0.2890625
0 0.787109375 0.513671875 0.27734375 0.21484375
0 0.369140625 0.298828125 0.23046875 0.16015625
0 0.134765625 0.080078125 0.12890625 0.12890625
0 0.599609375 0.2578125 0.17578125 0.125
