0 0.2734375 0.794921875 0.2265625 0.26953125
0 0.50390625 0.6015625 0.21875 0.1875
0 0.66015625 0.283203125 0.1328125 0.16015625
0 0.853515625 0.322265625 0.12109375 0.09765625
0 0.30859375 0.4375 0.1015625 0.2890625
