0 0.169921875 0.59375 0.19140625 0.2421875
0 0.3984375 0.701171875 0.171875 0.12890625
0 0.6484375 0.662109375 0.21875 0.16796875
0 0.79296875 0.458984375 0.2734375 0.17578125
0 0.42578125 0.326171875 0.3125 0.17578125
0 0.189453125 0.79296875 0.16015625 0.1015625
0 0.759765625 0.20703125 0.11328125 0.1171875
