0 0.677734375 0.54296875 0.18359375 0.2734375
0 0.3046875 0.755859375 0.4140625 0.27734375
0 0.7109375 0.244140625 0.421875 0.19140625
0 0.283203125 0.537109375 0.11328125 0.06640625
0 0.501953125 0.498046875 0.17578125 0.10546875
