0 0.716796875 0.76953125 0.31640625 0.2265625
0 0.69140625 0.4765625 0.234375 0.265625
0 0.38671875 0.22265625 0.328125 0.2421875
0 0.30078125 0.556640625 0.2421875 0.15234375
0 0.412109375 0.701171875 0.19140625 0.13671875
