0 0.54296875 0.484375 0.3515625 0.1796875
0 0.69140625 0.33984375 0.1015625 0.078125
0 0.849609375 0.396484375 0.11328125 0.12109375
0 0.27734375 0.2890625 0.203125 0.109375
0 0.2578125 0.66796875 0.125 0.1015625
0 0.615234375 0.841796875 0.12890625 0.18359375
0 0.79296875 0.662109375 0.1796875 0.08984375
0 0.556640625 0.65625 0.09765625 0.125
