0 0.541015625 0.18359375 0.58984375 0.3671875
0 0.126953125 0.408203125 0.16796875 0.53515625
0 0.474609375 0.73828125 0.16796875 0.1953125
0 0.74609375 0.646484375 0.25 0.44921875
0 0.234375 0.892578125 0.265625 0.12109375
