0 0.5625 0.373046875 0.28125 0.28515625
0 0.16796875 0.517578125 0.1796875 0.40234375
0 0.314453125 0.927734375 0.14453125 0.09765625
0 0.513671875 0.744140625 0.19921875 0.21484375
0 0.640625 0.15625 0.15625 0.09375
0 0.861328125 0.314453125 0.11328125 0.05859375
