0 0.634765625 0.3671875 0.34765625 0.2421875
0 0.6484375 0.59765625 0.296875 0.171875
0 0.4140625 0.8203125 0.2109375 0.1875
0 0.158203125 0.62109375 0.30078125 0.1328125
0 0.265625 0.22265625 0.1953125 0.203125
0 0.84375 0.107421875 0.1640625 0.15234375
