0 0.337890625 0.294921875 0.27734375 0.19140625
0 0.34765625 0.509765625 0.21875 0.08984375
0 0.517578125 0.64453125 0.30859375 0.1796875
0 0.8203125 0.55078125 0.078125 0.140625
0 0.75390625 0.67578125 0.109375 0.1015625
